…
Explore data

Målet for dette opslag er at forudsige om et beach volleyball vil vinde
baseret på deres game play stat; errors, blocks, attacks. etc. Da der er er meget data, kan
vi benytte os af en mere avanceret machine larning model XGBoost. En af de ting som
er krævende ved denne model er den har en masse parameter, som kræver tuning.

vb_matches <- readr::read_csv("https://raw.githubusercontent.com/rfordatascience/tidytuesday/master/data/2020/2020-05-19/vb_matches.csv", guess_max = 76000)

vb_matches

## # A tibble: 76,756 x 65
##    circuit tournament country  year date       gender match_num w_player1
##    <chr>   <chr>      <chr>   <dbl> <date>     <chr>      <dbl> <chr>    
##  1 AVP     Huntingto~ United~  2002 2002-05-24 M              1 Kevin Wo~
##  2 AVP     Huntingto~ United~  2002 2002-05-24 M              2 Brad Tor~
##  3 AVP     Huntingto~ United~  2002 2002-05-24 M              3 Eduardo ~
##  4 AVP     Huntingto~ United~  2002 2002-05-24 M              4 Brent Do~
##  5 AVP     Huntingto~ United~  2002 2002-05-24 M              5 Albert H~
##  6 AVP     Huntingto~ United~  2002 2002-05-24 M              6 Jason Ri~
##  7 AVP     Huntingto~ United~  2002 2002-05-24 M              7 Aaron Bo~
##  8 AVP     Huntingto~ United~  2002 2002-05-24 M              8 Canyon C~
##  9 AVP     Huntingto~ United~  2002 2002-05-24 M              9 Dax Hold~
## 10 AVP     Huntingto~ United~  2002 2002-05-24 M             10 Mark Wil~
## # ... with 76,746 more rows, and 57 more variables: w_p1_birthdate <date>,
## #   w_p1_age <dbl>, w_p1_hgt <dbl>, w_p1_country <chr>, w_player2 <chr>,
## #   w_p2_birthdate <date>, w_p2_age <dbl>, w_p2_hgt <dbl>, w_p2_country <chr>,
## #   w_rank <chr>, l_player1 <chr>, l_p1_birthdate <date>, l_p1_age <dbl>,
## #   l_p1_hgt <dbl>, l_p1_country <chr>, l_player2 <chr>, l_p2_birthdate <date>,
## #   l_p2_age <dbl>, l_p2_hgt <dbl>, l_p2_country <chr>, l_rank <chr>,
## #   score <chr>, duration <time>, bracket <chr>, round <chr>,
## #   w_p1_tot_attacks <dbl>, w_p1_tot_kills <dbl>, w_p1_tot_errors <dbl>,
## #   w_p1_tot_hitpct <dbl>, w_p1_tot_aces <dbl>, w_p1_tot_serve_errors <dbl>,
…
Undersøg resultater

Vi kan undersøge metricerne for alle disse modeller.

xgb_res %>%
  collect_metrics()

## # A tibble: 40 x 11
##     mtry min_n tree_depth learn_rate loss_reduction sample_size .metric
##    <int> <int>      <int>      <dbl>          <dbl>       <dbl> <chr>  
##  1     1    15          2    1.56e-6 0.00000000923        0.979 accura~
##  2     1    15          2    1.56e-6 0.00000000923        0.979 roc_auc
##  3     2    19          5    2.69e-8 0.00000000291        0.449 accura~
##  4     2    19          5    2.69e-8 0.00000000291        0.449 roc_auc
##  5     2    21         10    1.15e-9 0.000000000450       0.817 accura~
##  6     2    21         10    1.15e-9 0.000000000450       0.817 roc_auc
##  7     3     3          2    1.22e-7 0.0233               0.747 accura~
##  8     3     3          2    1.22e-7 0.0233               0.747 roc_auc
##  9     3    25          7    1.45e-5 0.000000543          0.922 accura~
## 10     3    25          7    1.45e-5 0.000000543          0.922 roc_auc
## # ... with 30 more rows, and 4 more variables: .estimator <chr>, mean <dbl>,
## #   n <int>, std_err <dbl>
…
